…
# Clean up and show output.
df <- as_tibble(df)
print(df)
```

This produces the following result.

```
# A tibble: 15,264 × 4
    steps        date  interval
*   <chr>       <chr>     <dbl>
1       0  2012-10-02         0
2       0  2012-10-02         5
3       0  2012-10-02        10
4       0  2012-10-02        15
5       0  2012-10-02        20
6       0  2012-10-02        25
7       0  2012-10-02        30
8       0  2012-10-02        35
9       0  2012-10-02        40
10      0  2012-10-02        45
# ... with 15,254 more rows
```
…
